{
  "page": 4,
  "total_results": 19831,
  "total_pages": 992,
  "results": [
    {
      "vote_count": 8077,
      "id": 297762,
      "video": false,
      "vote_average": 7.2,
      "title": "Wonder Woman",
      "popularity": 47.724669,
      "poster_path": "\/imekS7f1OuHyUP2LAiTEM0zBzUz.jpg",
      "original_language": "en",
      "original_title": "Wonder Woman",
      "genre_ids": [
        28,
        12
      ],
      "backdrop_path": "\/6iUNJZymJBMXXriQyFZfLAKnjO6.jpg",
      "adult": false,
      "overview": "An Amazon princess comes to the world of Man in the grips of the First World War to confront the forces of evil and bring an end to human conflict.",
      "release_date": "2017-05-30"
    },
    {
      "vote_count": 9027,
      "id": 209112,
      "video": false,
      "vote_average": 5.7,
      "title": "Batman v Superman: Dawn of Justice",
      "popularity": 47.303254,
      "poster_path": "\/cGOPbv9wA5gEejkUN892JrveARt.jpg",
      "original_language": "en",
      "original_title": "Batman v Superman: Dawn of Justice",
      "genre_ids": [
        28,
        12,
        14
      ],
      "backdrop_path": "\/vsjBeMPZtyB7yNsYY56XYxifaQZ.jpg",
      "adult": false,
      "overview": "Fearing the actions of a god-like Super Hero left unchecked, Gotham City’s own formidable, forceful vigilante takes on Metropolis’s most revered, modern-day savior, while the world wrestles with what sort of hero it really needs. And with Batman and Superman at war with one another, a new threat quickly arises, putting mankind in greater danger than it’s ever known before.",
      "release_date": "2016-03-23"
    },
    {
      "vote_count": 7380,
      "id": 127585,
      "video": false,
      "vote_average": 7.5,
      "title": "X-Men: Days of Future Past",
      "popularity": 47.083152,
      "poster_path": "\/giUK8ppRbfistadVzHtpainkhq4.jpg",
      "original_language": "en",
      "original_title": "X-Men: Days of Future Past",
      "genre_ids": [
        28,
        12,
        14,
        878
      ],
      "backdrop_path": "\/5LBcSLHAtEIIgvNkA2dPmYH5wR7.jpg",
      "adult": false,
      "overview": "The ultimate X-Men ensemble fights a war for the survival of the species across two time periods as they join forces with their younger selves in an epic battle that must change the past – to save our future.",
      "release_date": "2014-05-15"
    },
    {
      "vote_count": 5619,
      "id": 194662,
      "video": false,
      "vote_average": 7.4,
      "title": "Birdman",
      "popularity": 46.841961,
      "poster_path": "\/rSZs93P0LLxqlVEbI001UKoeCQC.jpg",
      "original_language": "en",
      "original_title": "Birdman",
      "genre_ids": [
        18,
        35
      ],
      "backdrop_path": "\/pLMRBAKD9Nc9zjWRpqLXasNcf4F.jpg",
      "adult": false,
      "overview": "A fading actor best known for his portrayal of a popular superhero attempts to mount a comeback by appearing in a Broadway play. As opening night approaches, his attempts to become more altruistic, rebuild his career, and reconnect with friends and family prove more difficult than expected.",
      "release_date": "2014-08-27"
    },
    {
      "vote_count": 7383,
      "id": 283995,
      "video": false,
      "vote_average": 7.6,
      "title": "Guardians of the Galaxy Vol. 2",
      "popularity": 46.802306,
      "poster_path": "\/y4MBh0EjBlMuOzv9axM4qJlmhzz.jpg",
      "original_language": "en",
      "original_title": "Guardians of the Galaxy Vol. 2",
      "genre_ids": [
        28,
        12,
        35,
        878
      ],
      "backdrop_path": "\/aJn9XeesqsrSLKcHfHP4u5985hn.jpg",
      "adult": false,
      "overview": "The Guardians must fight to keep their newfound family together as they unravel the mysteries of Peter Quill's true parentage.",
      "release_date": "2017-04-19"
    },
    {
      "vote_count": 2602,
      "id": 260346,
      "video": false,
      "vote_average": 6.1,
      "title": "Taken 3",
      "popularity": 46.769638,
      "poster_path": "\/ikDwR3i2bczqnRf1urJTy77YTFf.jpg",
      "original_language": "en",
      "original_title": "Taken 3",
      "genre_ids": [
        53,
        28
      ],
      "backdrop_path": "\/sFTXZBtYAPHCwvX6OYNr916M6SZ.jpg",
      "adult": false,
      "overview": "Ex-government operative Bryan Mills finds his life is shattered when he's falsely accused of a murder that hits close to home. As he's pursued by a savvy police inspector, Mills employs his particular set of skills to track the real killer and exact his unique brand of justice.",
      "release_date": "2014-12-16"
    },
    {
      "vote_count": 3585,
      "id": 315837,
      "video": false,
      "vote_average": 5.9,
      "title": "Ghost in the Shell",
      "popularity": 46.662204,
      "poster_path": "\/myRzRzCxdfUWjkJWgpHHZ1oGkJd.jpg",
      "original_language": "en",
      "original_title": "Ghost in the Shell",
      "genre_ids": [
        28,
        878,
        53
      ],
      "backdrop_path": "\/jGPSVArC0GS2VVc0aGAqGTjfFOG.jpg",
      "adult": false,
      "overview": "In the near future, Major is the first of her kind: a human saved from a terrible crash, then cyber-enhanced to be a perfect soldier devoted to stopping the world's most dangerous criminals.",
      "release_date": "2017-03-29"
    },
    {
      "vote_count": 496,
      "id": 401981,
      "video": false,
      "vote_average": 6.3,
      "title": "Red Sparrow",
      "popularity": 46.639204,
      "poster_path": "\/fyufzd2S1lLxMxkTHTnmr6VJfe5.jpg",
      "original_language": "en",
      "original_title": "Red Sparrow",
      "genre_ids": [
        9648,
        53
      ],
      "backdrop_path": "\/ndTWwr9yzNyXev6d3Ekh2sxRrqm.jpg",
      "adult": false,
      "overview": "Prima ballerina Dominika Egorova faces a bleak and uncertain future after she suffers an injury that ends her career. She soon turns to Sparrow School, a secret intelligence service that trains exceptional young people to use their minds and bodies as weapons. Egorova emerges as the most dangerous Sparrow after completing the sadistic training process. As she comes to terms with her new abilities, Dominika meets a CIA agent who tries to convince her that he is the only person she can trust.",
      "release_date": "2018-03-01"
    },
    {
      "vote_count": 709,
      "id": 301337,
      "video": false,
      "vote_average": 5.2,
      "title": "Downsizing",
      "popularity": 46.479099,
      "poster_path": "\/uLlmtN33rMuimRq6bu0OoNzCGGs.jpg",
      "original_language": "en",
      "original_title": "Downsizing",
      "genre_ids": [
        35,
        18,
        878
      ],
      "backdrop_path": "\/5RzW9i3vFsXCPLqYwgNJV1QuSgk.jpg",
      "adult": false,
      "overview": "A kindly occupational therapist undergoes a new procedure to be shrunken to four inches tall so that he and his wife can help save the planet and afford a nice lifestyle at the same time.",
      "release_date": "2017-12-22"
    },
    {
      "vote_count": 10821,
      "id": 1726,
      "video": false,
      "vote_average": 7.4,
      "title": "Iron Man",
      "popularity": 46.366628,
      "poster_path": "\/848chlIWVT41VtAAgyh9bWymAYb.jpg",
      "original_language": "en",
      "original_title": "Iron Man",
      "genre_ids": [
        28,
        878,
        12
      ],
      "backdrop_path": "\/ZQixhAZx6fH1VNafFXsqa1B8QI.jpg",
      "adult": false,
      "overview": "After being held captive in an Afghan cave, billionaire engineer Tony Stark creates a unique weaponized suit of armor to fight evil.",
      "release_date": "2008-04-30"
    },
    {
      "vote_count": 2404,
      "id": 339964,
      "video": false,
      "vote_average": 6.6,
      "title": "Valerian and the City of a Thousand Planets",
      "popularity": 46.21087,
      "poster_path": "\/jfIpMh79fGRqYJ6PwZLCntzgxlF.jpg",
      "original_language": "en",
      "original_title": "Valerian and the City of a Thousand Planets",
      "genre_ids": [
        12,
        878,
        28
      ],
      "backdrop_path": "\/7WjMTRF6LDa4latRUIDM25xnDO0.jpg",
      "adult": false,
      "overview": "In the 28th century, Valerian and Laureline are special operatives charged with keeping order throughout the human territories. On assignment from the Minister of Defense, the two undertake a mission to Alpha, an ever-expanding metropolis where species from across the universe have converged over centuries to share knowledge, intelligence, and cultures. At the center of Alpha is a mysterious dark force which threatens the peaceful existence of the City of a Thousand Planets, and Valerian and Laureline must race to identify the menace and safeguard not just Alpha, but the future of the universe.",
      "release_date": "2017-07-20"
    },
    {
      "vote_count": 4471,
      "id": 216015,
      "video": false,
      "vote_average": 5.3,
      "title": "Fifty Shades of Grey",
      "popularity": 45.946866,
      "poster_path": "\/jV8wnk3Jgz6f7degmT3lHNGI2tK.jpg",
      "original_language": "en",
      "original_title": "Fifty Shades of Grey",
      "genre_ids": [
        18,
        10749,
        53
      ],
      "backdrop_path": "\/zAd0MjURkOvJynIsqmLMBcICxUt.jpg",
      "adult": false,
      "overview": "When college senior Anastasia Steele steps in for her sick roommate to interview prominent businessman Christian Grey for their campus paper, little does she realize the path her life will take. Christian, as enigmatic as he is rich and powerful, finds himself strangely drawn to Ana, and she to him. Though sexually inexperienced, Ana plunges headlong into an affair -- and learns that Christian's true sexual proclivities push the boundaries of pain and pleasure.",
      "release_date": "2015-02-11"
    },
    {
      "vote_count": 1597,
      "id": 189,
      "video": false,
      "vote_average": 6.3,
      "title": "Sin City: A Dame to Kill For",
      "popularity": 45.583748,
      "poster_path": "\/k80qKrJ0qQ6ocVo5N932stNSg6j.jpg",
      "original_language": "en",
      "original_title": "Sin City: A Dame to Kill For",
      "genre_ids": [
        80,
        53
      ],
      "backdrop_path": "\/khzRw7ZDE3NIrYpe0RYyB864FPT.jpg",
      "adult": false,
      "overview": "Some of Sin City's most hard-boiled citizens cross paths with a few of its more reviled inhabitants.",
      "release_date": "2014-08-20"
    },
    {
      "vote_count": 121,
      "id": 468202,
      "video": false,
      "vote_average": 7.1,
      "title": "The Girl in the Fog",
      "popularity": 45.546282,
      "poster_path": "\/eWINXglQ9JVxUuzouYK7arm9YT1.jpg",
      "original_language": "it",
      "original_title": "La ragazza nella nebbia",
      "genre_ids": [
        80,
        53
      ],
      "backdrop_path": "\/1r9UN54aVFTty9AlLwPkW6ZHVFl.jpg",
      "adult": false,
      "overview": "Based on the bestselling novel by Donato Carrisi, THE GIRL IN THE FOG is a gripping and chilling thriller that brings us to a hazy mountain village where enigmatic Detective Vogel is investigating on the sudden disappearance of fifteen-year-old Anna Lou. But with the case at the heart of a media storm, the fine line between the police and criminals begins to blur and soon everyone becomes a suspect.",
      "release_date": "2017-10-26"
    },
    {
      "vote_count": 3753,
      "id": 198184,
      "video": false,
      "vote_average": 6.6,
      "title": "Chappie",
      "popularity": 45.399366,
      "poster_path": "\/saF3HtAduvrP9ytXDxSnQJP3oqx.jpg",
      "original_language": "en",
      "original_title": "Chappie",
      "genre_ids": [
        80,
        28,
        878
      ],
      "backdrop_path": "\/y5lG7TBpeOMG0jxAaTK0ghZSzBJ.jpg",
      "adult": false,
      "overview": "Every child comes into the world full of promise, and none more so than Chappie: he is gifted, special, a prodigy. Like any child, Chappie will come under the influence of his surroundings—some good, some bad—and he will rely on his heart and soul to find his way in the world and become his own man. But there's one thing that makes Chappie different from any one else: he is a robot.",
      "release_date": "2015-03-04"
    },
    {
      "vote_count": 6152,
      "id": 1865,
      "video": false,
      "vote_average": 6.4,
      "title": "Pirates of the Caribbean: On Stranger Tides",
      "popularity": 45.175483,
      "poster_path": "\/wNUDAq5OUMOtxMlz64YaCp7gZma.jpg",
      "original_language": "en",
      "original_title": "Pirates of the Caribbean: On Stranger Tides",
      "genre_ids": [
        12,
        28,
        14
      ],
      "backdrop_path": "\/l7zANdjgTvYqwZUx76Vk0EKpCH5.jpg",
      "adult": false,
      "overview": "Captain Jack Sparrow crosses paths with a woman from his past, and he's not sure if it's love -- or if she's a ruthless con artist who's using him to find the fabled Fountain of Youth. When she forces him aboard the Queen Anne's Revenge, the ship of the formidable pirate Blackbeard, Jack finds himself on an unexpected adventure in which he doesn't know who to fear more: Blackbeard or the woman from his past.",
      "release_date": "2011-05-14"
    },
    {
      "vote_count": 1269,
      "id": 399404,
      "video": false,
      "vote_average": 7.2,
      "title": "Darkest Hour",
      "popularity": 44.933425,
      "poster_path": "\/xa6G3aKlysQeVg9wOb0dRcIGlWu.jpg",
      "original_language": "en",
      "original_title": "Darkest Hour",
      "genre_ids": [
        18,
        36
      ],
      "backdrop_path": "\/zXwFJMwvQcJFitP9GcHZvHAHGe8.jpg",
      "adult": false,
      "overview": "A thrilling and inspiring true story begins on the eve of World War II as, within days of becoming Prime Minister of Great Britain, Winston Churchill must face one of his most turbulent and defining trials: exploring a negotiated peace treaty with Nazi Germany, or standing firm to fight for the ideals, liberty and freedom of a nation. As the unstoppable Nazi forces roll across Western Europe and the threat of invasion is imminent, and with an unprepared public, a skeptical King, and his own party plotting against him, Churchill must withstand his darkest hour, rally a nation, and attempt to change the course of world history.",
      "release_date": "2017-11-22"
    },
    {
      "vote_count": 9730,
      "id": 122,
      "video": false,
      "vote_average": 8.2,
      "title": "The Lord of the Rings: The Return of the King",
      "popularity": 44.893514,
      "poster_path": "\/rCzpDGLbOoPwLjy3OAm5NUPOTrC.jpg",
      "original_language": "en",
      "original_title": "The Lord of the Rings: The Return of the King",
      "genre_ids": [
        12,
        14,
        28
      ],
      "backdrop_path": "\/8BPZO0Bf8TeAy8znF43z8soK3ys.jpg",
      "adult": false,
      "overview": "Aragorn is revealed as the heir to the ancient kings as he, Gandalf and the other members of the broken fellowship struggle to save Gondor from Sauron's forces. Meanwhile, Frodo and Sam bring the ring closer to the heart of Mordor, the dark lord's realm.",
      "release_date": "2003-12-01"
    },
    {
      "vote_count": 11189,
      "id": 76341,
      "video": false,
      "vote_average": 7.3,
      "title": "Mad Max: Fury Road",
      "popularity": 44.661671,
      "poster_path": "\/kqjL17yufvn9OVLyXYpvtyrFfak.jpg",
      "original_language": "en",
      "original_title": "Mad Max: Fury Road",
      "genre_ids": [
        28,
        12,
        878,
        53
      ],
      "backdrop_path": "\/phszHPFVhPHhMZgo0fWTKBDQsJA.jpg",
      "adult": false,
      "overview": "An apocalyptic story set in the furthest reaches of our planet, in a stark desert landscape where humanity is broken, and most everyone is crazed fighting for the necessities of life. Within this world exist two rebels on the run who just might be able to restore order. There's Max, a man of action and a man of few words, who seeks peace of mind following the loss of his wife and child in the aftermath of the chaos. And Furiosa, a woman of action and a woman who believes her path to survival may be achieved if she can make it across the desert back to her childhood homeland.",
      "release_date": "2015-05-13"
    },
    {
      "vote_count": 3315,
      "id": 76757,
      "video": false,
      "vote_average": 5.2,
      "title": "Jupiter Ascending",
      "popularity": 44.584219,
      "poster_path": "\/aMEsvTUklw0uZ3gk3Q6lAj6302a.jpg",
      "original_language": "en",
      "original_title": "Jupiter Ascending",
      "genre_ids": [
        878,
        14,
        28,
        12
      ],
      "backdrop_path": "\/4liSXBZZdURI0c1Id1zLJo6Z3Gu.jpg",
      "adult": false,
      "overview": "In a universe where human genetic material is the most precious commodity, an impoverished young Earth woman becomes the key to strategic maneuvers and internal strife within a powerful dynasty…",
      "release_date": "2015-02-04"
    }
  ]
}